<?xml version="1.0" encoding="utf-8"?>
<!-- Generator: Adobe Illustrator 21.1.0, SVG Export Plug-In . SVG Version: 6.00 Build 0)  -->
<svg version="1.1" id="Ebene_1" xmlns="http://www.w3.org/2000/svg" xmlns:xlink="http://www.w3.org/1999/xlink" x="0px" y="0px"
	 viewBox="0 0 24 24" style="enable-background:new 0 0 24 24;" xml:space="preserve">
<style type="text/css">
	.st0{fill:none;stroke:#000000;stroke-miterlimit:10;}
</style>
<g>
	<g>
		<path class="st0" d="M2.8,18.1c0,1.7,1.3,3,3,3h12c1.7,0,3-1.3,3-3v-12c0-1.7-1.3-3-3-3h-12c-1.7,0-3,1.3-3,3V18.1z"/>
	</g>
	<line class="st0" x1="8.5" y1="3.4" x2="8.5" y2="20.7"/>
	<line class="st0" x1="14.7" y1="3.4" x2="14.7" y2="20.7"/>
</g>
</svg>
