{
    "key": "group_5f15a8287c105",
    "title": "MMM Link Widget",
    "fields": [
        {
            "key": "field_5f16b90292968",
            "label": "Link-Typ",
            "name": "mmm_link_type",
            "type": "select",
            "instructions": "",
            "required": 0,
            "conditional_logic": 0,
            "wrapper": {
                "width": "",
                "class": "",
                "id": ""
            },
            "wpml_cf_preferences": 2,
            "choices": [
                "Standard",
                "großes Bild",
                "Highlight-Kachel"
            ],
            "default_value": false,
            "allow_null": 0,
            "multiple": 0,
            "ui": 0,
            "return_format": "value",
            "show_column": 0,
            "show_column_sortable": 0,
            "show_column_weight": 1000,
            "allow_quickedit": 0,
            "allow_bulkedit": 0,
            "ajax": 0,
            "placeholder": ""
        },
        {
            "key": "field_5f15a839d41dc",
            "label": "Titel",
            "name": "mmm_title",
            "type": "text",
            "instructions": "",
            "required": 0,
            "conditional_logic": 0,
            "wrapper": {
                "width": "",
                "class": "",
                "id": ""
            },
            "wpml_cf_preferences": 2,
            "default_value": "",
            "placeholder": "",
            "prepend": "",
            "append": "",
            "maxlength": ""
        },
        {
            "key": "field_5f15a85dd41dd",
            "label": "Text",
            "name": "mmm_txt",
            "type": "textarea",
            "instructions": "",
            "required": 0,
            "conditional_logic": 0,
            "wrapper": {
                "width": "",
                "class": "",
                "id": ""
            },
            "wpml_cf_preferences": 2,
            "default_value": "",
            "placeholder": "",
            "maxlength": "",
            "rows": "",
            "new_lines": ""
        },
        {
            "key": "field_5f15a869d41de",
            "label": "Bild-Typ",
            "name": "mmm_img_type",
            "type": "select",
            "instructions": "",
            "required": 0,
            "conditional_logic": 0,
            "wrapper": {
                "width": "",
                "class": "",
                "id": ""
            },
            "wpml_cf_preferences": 2,
            "choices": [
                "kein Bild",
                "Beitragsbild",
                "Bild auswählen"
            ],
            "default_value": false,
            "allow_null": 0,
            "multiple": 0,
            "ui": 0,
            "return_format": "value",
            "show_column": 0,
            "show_column_sortable": 0,
            "show_column_weight": 1000,
            "allow_quickedit": 0,
            "allow_bulkedit": 0,
            "ajax": 0,
            "placeholder": ""
        },
        {
            "key": "field_5f15a896d41df",
            "label": "Bild",
            "name": "mmm_img",
            "type": "image",
            "instructions": "",
            "required": 0,
            "conditional_logic": [
                [
                    {
                        "field": "field_5f15a869d41de",
                        "operator": "==",
                        "value": "2"
                    }
                ]
            ],
            "wrapper": {
                "width": "",
                "class": "",
                "id": ""
            },
            "wpml_cf_preferences": 2,
            "return_format": "array",
            "preview_size": "medium",
            "library": "all",
            "min_width": "",
            "min_height": "",
            "min_size": "",
            "max_width": "",
            "max_height": "",
            "max_size": "",
            "mime_types": "",
            "show_column": 0,
            "show_column_weight": 1000,
            "allow_quickedit": 0,
            "allow_bulkedit": 0
        },
        {
            "key": "field_5f15a8d9d41e0",
            "label": "Link",
            "name": "mmm_link",
            "type": "link",
            "instructions": "",
            "required": 0,
            "conditional_logic": 0,
            "wrapper": {
                "width": "",
                "class": "",
                "id": ""
            },
            "wpml_cf_preferences": 2,
            "return_format": "array"
        }
    ],
    "location": [
        [
            {
                "param": "widget",
                "operator": "==",
                "value": "t3_mega_img_txt_widget"
            }
        ]
    ],
    "menu_order": 0,
    "position": "normal",
    "style": "default",
    "label_placement": "top",
    "instruction_placement": "label",
    "hide_on_screen": "",
    "active": true,
    "description": "",
    "show_in_rest": 0,
    "modified": 1642329805
}