{
    "key": "group_5ee0a18355809",
    "title": "Split-Screen",
    "fields": [
        {
            "key": "field_5ee0a1aad1db3",
            "label": "Bild",
            "name": "",
            "type": "tab",
            "instructions": "",
            "required": 0,
            "conditional_logic": 0,
            "wrapper": {
                "width": "",
                "class": "",
                "id": ""
            },
            "placement": "top",
            "endpoint": 0
        },
        {
            "key": "field_5ee0a198d1db2",
            "label": "Bild",
            "name": "sps_img",
            "type": "image",
            "instructions": "",
            "required": 0,
            "conditional_logic": 0,
            "wrapper": {
                "width": "",
                "class": "",
                "id": ""
            },
            "return_format": "array",
            "preview_size": "medium",
            "library": "all",
            "min_width": "",
            "min_height": "",
            "min_size": "",
            "max_width": "",
            "max_height": "",
            "max_size": "",
            "mime_types": ""
        },
        {
            "key": "field_5ee337d48ccea",
            "label": "Breite",
            "name": "sps_img_size",
            "type": "group",
            "instructions": "",
            "required": 0,
            "conditional_logic": 0,
            "wrapper": {
                "width": "",
                "class": "",
                "id": ""
            },
            "layout": "table",
            "sub_fields": [
                {
                    "key": "field_5ee3380c8ccf1",
                    "label": "Small",
                    "name": "small",
                    "type": "range",
                    "instructions": "",
                    "required": 0,
                    "conditional_logic": 0,
                    "wrapper": {
                        "width": "",
                        "class": "",
                        "id": ""
                    },
                    "default_value": 12,
                    "min": "",
                    "max": 12,
                    "step": "",
                    "prepend": "",
                    "append": ""
                },
                {
                    "key": "field_5ee3383e8ccf2",
                    "label": "Medium",
                    "name": "medium",
                    "type": "range",
                    "instructions": "",
                    "required": 0,
                    "conditional_logic": 0,
                    "wrapper": {
                        "width": "",
                        "class": "",
                        "id": ""
                    },
                    "default_value": 6,
                    "min": "",
                    "max": 12,
                    "step": "",
                    "prepend": "",
                    "append": ""
                },
                {
                    "key": "field_5ee338508ccf3",
                    "label": "Large",
                    "name": "large",
                    "type": "range",
                    "instructions": "",
                    "required": 0,
                    "conditional_logic": 0,
                    "wrapper": {
                        "width": "",
                        "class": "",
                        "id": ""
                    },
                    "default_value": "",
                    "min": "",
                    "max": 12,
                    "step": "",
                    "prepend": "",
                    "append": ""
                }
            ]
        },
        {
            "key": "field_5f9c5261b8f75",
            "label": "Ausrichtung Bild",
            "name": "sps_img_align",
            "type": "group",
            "instructions": "",
            "required": 0,
            "conditional_logic": [
                [
                    {
                        "field": "field_5ee0a301b3b15",
                        "operator": "==",
                        "value": "img"
                    }
                ]
            ],
            "wrapper": {
                "width": "",
                "class": "",
                "id": ""
            },
            "layout": "block",
            "sub_fields": [
                {
                    "key": "field_626b9e159edbd",
                    "label": "Ausrichtung X",
                    "name": "align_x",
                    "type": "select",
                    "instructions": "",
                    "required": 0,
                    "conditional_logic": 0,
                    "wrapper": {
                        "width": "",
                        "class": "",
                        "id": ""
                    },
                    "wpml_cf_preferences": 1,
                    "choices": {
                        "flex-end": "rechts",
                        "center": "mittig",
                        "flex-start": "links"
                    },
                    "default_value": false,
                    "allow_null": 0,
                    "multiple": 0,
                    "ui": 0,
                    "return_format": "value",
                    "ajax": 0,
                    "placeholder": ""
                },
                {
                    "key": "field_5f9c529fb8f76",
                    "label": "Ausrichtung Y",
                    "name": "align_y",
                    "type": "select",
                    "instructions": "",
                    "required": 0,
                    "conditional_logic": 0,
                    "wrapper": {
                        "width": "",
                        "class": "",
                        "id": ""
                    },
                    "choices": {
                        "center": "mittig",
                        "top": "oben",
                        "bottom": "unten"
                    },
                    "default_value": false,
                    "allow_null": 0,
                    "multiple": 0,
                    "ui": 0,
                    "return_format": "value",
                    "ajax": 0,
                    "placeholder": ""
                }
            ]
        },
        {
            "key": "field_5ee780b8477a0",
            "label": "Ausrichtung Hintergrundbild",
            "name": "sps_bg_align",
            "type": "group",
            "instructions": "",
            "required": 0,
            "conditional_logic": [
                [
                    {
                        "field": "field_5ee0a301b3b15",
                        "operator": "==",
                        "value": "bg"
                    }
                ]
            ],
            "wrapper": {
                "width": "",
                "class": "",
                "id": ""
            },
            "layout": "table",
            "sub_fields": [
                {
                    "key": "field_5ee780b8477a1",
                    "label": "Ausrichtung X",
                    "name": "align_x",
                    "type": "select",
                    "instructions": "",
                    "required": 0,
                    "conditional_logic": 0,
                    "wrapper": {
                        "width": "",
                        "class": "",
                        "id": ""
                    },
                    "choices": {
                        "center": "zentriert",
                        "left": "links",
                        "right": "rechts"
                    },
                    "default_value": false,
                    "allow_null": 0,
                    "multiple": 0,
                    "ui": 0,
                    "return_format": "value",
                    "ajax": 0,
                    "placeholder": ""
                },
                {
                    "key": "field_5ee780b8477a2",
                    "label": "Ausrichtung Y",
                    "name": "align_y",
                    "type": "select",
                    "instructions": "",
                    "required": 0,
                    "conditional_logic": 0,
                    "wrapper": {
                        "width": "",
                        "class": "",
                        "id": ""
                    },
                    "choices": {
                        "center": "mittig",
                        "top": "oben",
                        "bottom": "unten"
                    },
                    "default_value": false,
                    "allow_null": 0,
                    "multiple": 0,
                    "ui": 0,
                    "return_format": "value",
                    "ajax": 0,
                    "placeholder": ""
                }
            ]
        },
        {
            "key": "field_5ee0a18ad1db1",
            "label": "Inhalt",
            "name": "",
            "type": "tab",
            "instructions": "",
            "required": 0,
            "conditional_logic": 0,
            "wrapper": {
                "width": "",
                "class": "",
                "id": ""
            },
            "placement": "top",
            "endpoint": 0
        },
        {
            "key": "field_5ee0a209d1db5",
            "label": "Text",
            "name": "sps_content",
            "type": "wysiwyg",
            "instructions": "",
            "required": 0,
            "conditional_logic": 0,
            "wrapper": {
                "width": "",
                "class": "",
                "id": ""
            },
            "default_value": "",
            "tabs": "all",
            "toolbar": "full",
            "media_upload": 1,
            "delay": 0
        },
        {
            "key": "field_5ee338928ccf4",
            "label": "Breite",
            "name": "sps_content_size",
            "type": "group",
            "instructions": "",
            "required": 0,
            "conditional_logic": 0,
            "wrapper": {
                "width": "",
                "class": "",
                "id": ""
            },
            "layout": "table",
            "sub_fields": [
                {
                    "key": "field_5ee338928ccf5",
                    "label": "Small",
                    "name": "small",
                    "type": "range",
                    "instructions": "",
                    "required": 0,
                    "conditional_logic": 0,
                    "wrapper": {
                        "width": "",
                        "class": "",
                        "id": ""
                    },
                    "default_value": 12,
                    "min": "",
                    "max": 12,
                    "step": "",
                    "prepend": "",
                    "append": ""
                },
                {
                    "key": "field_5ee338928ccf6",
                    "label": "Medium",
                    "name": "medium",
                    "type": "range",
                    "instructions": "",
                    "required": 0,
                    "conditional_logic": 0,
                    "wrapper": {
                        "width": "",
                        "class": "",
                        "id": ""
                    },
                    "default_value": 6,
                    "min": "",
                    "max": 12,
                    "step": "",
                    "prepend": "",
                    "append": ""
                },
                {
                    "key": "field_5ee338928ccf7",
                    "label": "Large",
                    "name": "large",
                    "type": "range",
                    "instructions": "",
                    "required": 0,
                    "conditional_logic": 0,
                    "wrapper": {
                        "width": "",
                        "class": "",
                        "id": ""
                    },
                    "default_value": "",
                    "min": "",
                    "max": 12,
                    "step": "",
                    "prepend": "",
                    "append": ""
                }
            ]
        },
        {
            "key": "field_5ee0a246b3b12",
            "label": "Eigenschaften",
            "name": "",
            "type": "tab",
            "instructions": "",
            "required": 0,
            "conditional_logic": 0,
            "wrapper": {
                "width": "",
                "class": "",
                "id": ""
            },
            "placement": "top",
            "endpoint": 0
        },
        {
            "key": "field_5ee0a25db3b13",
            "label": "Allgemein",
            "name": "sps_props",
            "type": "group",
            "instructions": "",
            "required": 0,
            "conditional_logic": 0,
            "wrapper": {
                "width": "",
                "class": "",
                "id": ""
            },
            "layout": "table",
            "sub_fields": [
                {
                    "key": "field_5ee0a275b3b14",
                    "label": "Breite",
                    "name": "width",
                    "type": "select",
                    "instructions": "",
                    "required": 0,
                    "conditional_logic": 0,
                    "wrapper": {
                        "width": "",
                        "class": "",
                        "id": ""
                    },
                    "choices": {
                        "fw": "volle Breite",
                        "grid": "Grid-Container"
                    },
                    "default_value": false,
                    "allow_null": 0,
                    "multiple": 0,
                    "ui": 0,
                    "return_format": "value",
                    "ajax": 0,
                    "placeholder": ""
                },
                {
                    "key": "field_5ee236194430d",
                    "label": "Ausrichtung",
                    "name": "align",
                    "type": "select",
                    "instructions": "",
                    "required": 0,
                    "conditional_logic": 0,
                    "wrapper": {
                        "width": "",
                        "class": "",
                        "id": ""
                    },
                    "choices": {
                        "1": "links",
                        "2": "rechts"
                    },
                    "default_value": false,
                    "allow_null": 0,
                    "multiple": 0,
                    "ui": 0,
                    "return_format": "value",
                    "ajax": 0,
                    "placeholder": ""
                },
                {
                    "key": "field_5ee0a301b3b15",
                    "label": "Bild-Typ",
                    "name": "img_type",
                    "type": "select",
                    "instructions": "",
                    "required": 0,
                    "conditional_logic": 0,
                    "wrapper": {
                        "width": "",
                        "class": "",
                        "id": ""
                    },
                    "choices": {
                        "img": "Bild",
                        "bg": "Hintergrundbild"
                    },
                    "default_value": false,
                    "allow_null": 0,
                    "multiple": 0,
                    "ui": 0,
                    "return_format": "value",
                    "ajax": 0,
                    "placeholder": ""
                },
                {
                    "key": "field_5ee893fb70e6c",
                    "label": "Design",
                    "name": "design",
                    "type": "select",
                    "instructions": "",
                    "required": 0,
                    "conditional_logic": 0,
                    "wrapper": {
                        "width": "",
                        "class": "",
                        "id": ""
                    },
                    "wpml_cf_preferences": 1,
                    "choices": {
                        "0": "Standard",
                        "pdd": "Padding",
                        "offset": "Offset und Padding",
                        "no-pdd": "kein Padding",
                        "pdd-2cols": "2-spaltiges Layout (mit Padding)"
                    },
                    "default_value": false,
                    "allow_null": 0,
                    "multiple": 0,
                    "ui": 0,
                    "return_format": "value",
                    "show_column": 0,
                    "show_column_sortable": 0,
                    "show_column_weight": 1000,
                    "allow_quickedit": 0,
                    "allow_bulkedit": 0,
                    "ajax": 0,
                    "placeholder": ""
                },
                {
                    "key": "field_5ee8940670e6d",
                    "label": "Abstände",
                    "name": "margin",
                    "type": "select",
                    "instructions": "",
                    "required": 0,
                    "conditional_logic": 0,
                    "wrapper": {
                        "width": "",
                        "class": "",
                        "id": ""
                    },
                    "choices": {
                        "0": "ohne",
                        "l-mbs": "kleiner Abstand",
                        "l-mbm": "mittlerer Abstand",
                        "l-mbl": "großer Abstand",
                        "l-mbxl": "XL Abstand"
                    },
                    "default_value": false,
                    "allow_null": 0,
                    "multiple": 0,
                    "ui": 0,
                    "return_format": "value",
                    "ajax": 0,
                    "placeholder": ""
                },
                {
                    "key": "field_5ee9cfb02b02b",
                    "label": "Höhe",
                    "name": "height",
                    "type": "select",
                    "instructions": "",
                    "required": 0,
                    "conditional_logic": [
                        [
                            {
                                "field": "field_5ee0a301b3b15",
                                "operator": "==",
                                "value": "bg"
                            }
                        ]
                    ],
                    "wrapper": {
                        "width": "",
                        "class": "",
                        "id": ""
                    },
                    "choices": {
                        "0": "Mindesthöhe",
                        "mh-md": "mittel",
                        "mh-lg": "groß",
                        "mh-vh": "volle Höhe"
                    },
                    "default_value": false,
                    "allow_null": 0,
                    "multiple": 0,
                    "ui": 0,
                    "return_format": "value",
                    "ajax": 0,
                    "placeholder": ""
                }
            ]
        },
        {
            "key": "field_5ee3399004180",
            "label": "Offset linke Spalte",
            "name": "sps_offset",
            "type": "group",
            "instructions": "",
            "required": 0,
            "conditional_logic": [
                [
                    {
                        "field": "field_5ee0a275b3b14",
                        "operator": "==",
                        "value": "grid"
                    }
                ]
            ],
            "wrapper": {
                "width": "",
                "class": "",
                "id": ""
            },
            "layout": "table",
            "sub_fields": [
                {
                    "key": "field_5ee3399004181",
                    "label": "Small",
                    "name": "small",
                    "type": "range",
                    "instructions": "",
                    "required": 0,
                    "conditional_logic": 0,
                    "wrapper": {
                        "width": "",
                        "class": "",
                        "id": ""
                    },
                    "default_value": 0,
                    "min": "",
                    "max": 12,
                    "step": "",
                    "prepend": "",
                    "append": ""
                },
                {
                    "key": "field_5ee3399004182",
                    "label": "Medium",
                    "name": "medium",
                    "type": "range",
                    "instructions": "",
                    "required": 0,
                    "conditional_logic": 0,
                    "wrapper": {
                        "width": "",
                        "class": "",
                        "id": ""
                    },
                    "default_value": 0,
                    "min": "",
                    "max": 12,
                    "step": "",
                    "prepend": "",
                    "append": ""
                },
                {
                    "key": "field_5ee3399004183",
                    "label": "Large",
                    "name": "large",
                    "type": "range",
                    "instructions": "",
                    "required": 0,
                    "conditional_logic": 0,
                    "wrapper": {
                        "width": "",
                        "class": "",
                        "id": ""
                    },
                    "default_value": 0,
                    "min": "",
                    "max": 12,
                    "step": "",
                    "prepend": "",
                    "append": ""
                }
            ]
        },
        {
            "key": "field_5ee893ad70e6b",
            "label": "Hintergründe",
            "name": "sps_bgs",
            "type": "group",
            "instructions": "",
            "required": 0,
            "conditional_logic": 0,
            "wrapper": {
                "width": "",
                "class": "",
                "id": ""
            },
            "layout": "table",
            "sub_fields": [
                {
                    "key": "field_5ee337a78cce9",
                    "label": "HG Sektion",
                    "name": "grid_bg",
                    "type": "select",
                    "instructions": "",
                    "required": 0,
                    "conditional_logic": 0,
                    "wrapper": {
                        "width": "",
                        "class": "",
                        "id": ""
                    },
                    "choices": {
                        "trans": "transparent",
                        "primary": "Primärfarbe",
                        "secondary": "Sekundärfarbe",
                        "lightgray": "Hellgrau",
                        "gray": "Grau",
                        "white": "Weiß"
                    },
                    "default_value": false,
                    "allow_null": 0,
                    "multiple": 0,
                    "ui": 0,
                    "return_format": "value",
                    "ajax": 0,
                    "placeholder": ""
                },
                {
                    "key": "field_5ee337748cce8",
                    "label": "HG Text-Zelle",
                    "name": "content_cell_bg",
                    "type": "select",
                    "instructions": "",
                    "required": 0,
                    "conditional_logic": 0,
                    "wrapper": {
                        "width": "",
                        "class": "",
                        "id": ""
                    },
                    "choices": {
                        "trans": "transparent",
                        "primary": "Primärfarbe",
                        "secondary": "Sekundärfarbe",
                        "lightgray": "Hellgrau",
                        "gray": "Grau",
                        "white": "Weiß"
                    },
                    "default_value": false,
                    "allow_null": 0,
                    "multiple": 0,
                    "ui": 0,
                    "return_format": "value",
                    "ajax": 0,
                    "placeholder": ""
                },
                {
                    "key": "field_5ee0a351b3b16",
                    "label": "HG Text",
                    "name": "content_bg",
                    "type": "select",
                    "instructions": "",
                    "required": 0,
                    "conditional_logic": 0,
                    "wrapper": {
                        "width": "",
                        "class": "",
                        "id": ""
                    },
                    "choices": {
                        "trans": "transparent",
                        "primary": "Primärfarbe",
                        "secondary": "Sekundärfarbe",
                        "lightgray": "Hellgrau",
                        "gray": "Grau",
                        "white": "Weiß"
                    },
                    "default_value": false,
                    "allow_null": 0,
                    "multiple": 0,
                    "ui": 0,
                    "return_format": "value",
                    "ajax": 0,
                    "placeholder": ""
                }
            ]
        }
    ],
    "location": [
        [
            {
                "param": "block",
                "operator": "==",
                "value": "acf\/splitscreen"
            }
        ]
    ],
    "menu_order": 0,
    "position": "normal",
    "style": "default",
    "label_placement": "top",
    "instruction_placement": "label",
    "hide_on_screen": "",
    "active": true,
    "description": "",
    "modified": 1651220100
}