<svg xmlns="http://www.w3.org/2000/svg" width="18" height="14" viewBox="0 0 18 14">
  <g fill="none" fill-rule="evenodd">
    <rect width="18" height="14" fill="#FFF"/>
    <rect width="18.447" height="5" y="4" fill="#00178D"/>
    <rect width="18.447" height="5" y="9" fill="#FF0202"/>
    <path fill="#FFF" stroke="#00178D" d="M3,3 C3,4.44 3.5,5.44 4.5,6 C5.5,5.44 6,4.44 6,3 L3,3 Z"/>
  </g>
</svg>
